digraph "initGameObjects"
{
  edge [fontname="Helvetica",fontsize="10",labelfontname="Helvetica",labelfontsize="10"];
  node [fontname="Helvetica",fontsize="10",shape=record];
  rankdir="LR";
  Node1 [label="initGameObjects",height=0.2,width=0.4,color="black", fillcolor="grey75", style="filled", fontcolor="black"];
  Node1 -> Node2 [color="midnightblue",fontsize="10",style="solid",fontname="Helvetica"];
  Node2 [label="init",height=0.2,width=0.4,color="black", fillcolor="white", style="filled",URL="$main_8cpp.html#aee8048628ff2b5c026c9e15acdcaacb8"];
  Node1 -> Node3 [color="midnightblue",fontsize="10",style="solid",fontname="Helvetica"];
  Node3 [label="loadMedia",height=0.2,width=0.4,color="black", fillcolor="white", style="filled",URL="$main_8cpp.html#a24b0babc7c151f85567092a4c13fa743"];
}
